…
## Really really problematic

```{r}
A = data.frame(common="C", A_values=1:1000)
B = data.frame(common="C", B_values=1:1000)

inner_join(A,B) %>% tbl_df()
## Joining, by = "common"
## # A tibble: 1,000,000 x 3
##    common A_values B_values
##    <fctr>    <int>    <int>
##  1      C        1        1
##  2      C        1        2
##  3      C        1        3
##  4      C        1        4
##  5      C        1        5
##  6      C        1        6
##  7      C        1        7
##  8      C        1        8
##  9      C        1        9
## 10      C        1       10
## # ... with 999,990 more rows
```
…
